{
	"credit": "Made with Blockbench",
	"textures": {
		"2": "steampunk:items/grapple_texture",
		"particle": "steampunk:items/grapple_texture"
	},
	"elements": [
		{
			"from": [9, -0.175, 8.025],
			"to": [14.75, 5.575, 8.025],
			"rotation": {"angle": 0, "axis": "y", "origin": [12, 4.45, 8]},
			"faces": {
				"north": {"uv": [1, 1, 6, 6], "texture": "#2"},
				"east": {"uv": [0, 1, 1, 6], "texture": "#2"},
				"south": {"uv": [7, 1, 12, 6], "texture": "#2"},
				"west": {"uv": [6, 1, 7, 6], "texture": "#2"},
				"up": {"uv": [6, 1, 1, 0], "texture": "#2"},
				"down": {"uv": [11, 0, 6, 1], "texture": "#2"}
			}
		},
		{
			"from": [9, 4.4, 6.85],
			"to": [14.75, 4.4, 12.6],
			"rotation": {"angle": -22.5, "axis": "x", "origin": [12, 4.45, 8]},
			"faces": {
				"north": {"uv": [6, 1, 1, 0], "rotation": 180, "texture": "#2"},
				"east": {"uv": [0, 1, 1, 6], "rotation": 90, "texture": "#2"},
				"south": {"uv": [11, 0, 6, 1], "texture": "#2"},
				"west": {"uv": [6, 1, 7, 6], "rotation": 270, "texture": "#2"},
				"up": {"uv": [7, 1, 12, 6], "texture": "#2"},
				"down": {"uv": [1, 1, 6, 6], "rotation": 180, "texture": "#2"}
			}
		},
		{
			"from": [9, 4.425, 3.45],
			"to": [14.75, 4.425, 9.2],
			"rotation": {"angle": 22.5, "axis": "x", "origin": [12, 4.45, 8]},
			"faces": {
				"north": {"uv": [11, 0, 6, 1], "rotation": 180, "texture": "#2"},
				"east": {"uv": [0, 1, 1, 6], "rotation": 270, "texture": "#2"},
				"south": {"uv": [6, 1, 1, 0], "texture": "#2"},
				"west": {"uv": [6, 1, 7, 6], "rotation": 90, "texture": "#2"},
				"up": {"uv": [1, 1, 6, 6], "rotation": 180, "texture": "#2"},
				"down": {"uv": [7, 1, 12, 6], "texture": "#2"}
			}
		}
	],
	"display": {
		"thirdperson_righthand": {
			"rotation": [72, 88, 21],
			"translation": [0, -1.75, 2.5],
			"scale": [0.75, 0.75, 0.75]
		},
		"thirdperson_lefthand": {
			"rotation": [71, 82, -160],
			"translation": [0, -1.25, -3],
			"scale": [0.75, 0.75, 0.75]
		},
		"firstperson_righthand": {
			"rotation": [0, 110, 0],
			"translation": [4, 2.25, 0],
			"scale": [0.4, 0.4, 0.4]
		},
		"firstperson_lefthand": {
			"rotation": [0, -90, 25],
			"translation": [2.38, 3.2, 1.13],
			"scale": [0.68, 0.68, 0.68]
		},
		"ground": {
			"translation": [0, 2, 0],
			"scale": [0.5, 0.5, 0.5]
		},
		"gui": {
			"rotation": [30, 39, 0],
			"translation": [-2.75, 2.5, 0]
		},
		"head": {
			"translation": [-4, 5.5, 0]
		},
		"fixed": {
			"rotation": [25, 180, 0],
			"translation": [4.25, 6, 0]
		}
	},
	"groups": [
		{
			"name": "grapple",
			"origin": [8, 8, 8],
			"children": [0, 1, 2]
		}
	]
}